   0 :   60
   1 :   60
   2 :   60
   3 :   60
   4 :   60
   5 :   60
   6 :   60
   7 :   60
   8 :   90
   9 :   90
  10 :   60
  11 :   60
  12 :   60
  13 :   90
  14 :   60
  15 :   60

Created By Monogatari.