   0 :  180
   1 :   90
   2 :   90
   3 :   90
   4 :   90
   5 :   90
   6 :   90
   7 :   90
   8 :   90
   9 :   90
  10 :   90
  11 :   90
  12 :   90
  13 :   90
  14 :   90
  15 :   90

Created By Monogatari.